[gd_scene load_steps=4 format=2]

[ext_resource path="res://skriptoj/test_butonoj.gd" type="Script" id=1]
[ext_resource path="res://UI/tiparoj/Mohave-Regular.otf" type="DynamicFontData" id=2]


[sub_resource type="DynamicFont" id=1]

size = 150
use_mipmaps = false
use_filter = false
font_data = ExtResource( 2 )
_sections_unfolded = [ "Font", "Settings" ]

[node name="Root" type="Spatial" index="0"]

script = ExtResource( 1 )

[node name="ColorRect" type="ColorRect" parent="." index="0"]

anchor_left = 0.0
anchor_top = 0.0
anchor_right = 1.0
anchor_bottom = 1.0
rect_pivot_offset = Vector2( 0, 0 )
rect_clip_content = false
mouse_filter = 0
mouse_default_cursor_shape = 0
size_flags_horizontal = 1
size_flags_vertical = 1
color = Color( 0.0813141, 0.285156, 0.0988318, 1 )

[node name="text" type="Label" parent="." index="1"]

anchor_left = 0.5
anchor_top = 0.5
anchor_right = 0.5
anchor_bottom = 0.5
margin_left = -200.0
margin_top = -100.0
margin_right = 200.0
margin_bottom = 100.0
rect_min_size = Vector2( 400, 200 )
rect_pivot_offset = Vector2( 0, 0 )
rect_clip_content = false
mouse_filter = 2
mouse_default_cursor_shape = 0
size_flags_horizontal = 1
size_flags_vertical = 4
custom_fonts/font = SubResource( 1 )
text = "LEFT"
align = 1
valign = 1
percent_visible = 1.0
lines_skipped = 0
max_lines_visible = -1
_sections_unfolded = [ "Rect", "custom_fonts" ]


